Dads are weird – ClassWork2
…
weird_dad_data <- read_csv("~/Documents/R_work/Class work 2/ClassWork2/posts/A3/Datasets for A3/3-weird_dads.csv") %>%
janitor::clean_names(case = "snake")

Rows: 65 Columns: 4
── Column specification ────────────────────────────────────────────────────────
Delimiter: ","
chr (4): gender, college, is_dad_weird, name

ℹ Use `spec()` to retrieve the full column specification for this data.
ℹ Specify the column types or set `show_col_types = FALSE` to quiet this message.

weird_dad_data

# A tibble: 65 × 4
   gender college is_dad_weird name   
   <chr>  <chr>   <chr>        <chr>  
 1 F      SMI     No           Manya  
 2 F      SMI     No           Sradha 
 3 M      SMI     No           Arun   
 4 F      SMI     Yes          Nidhi  
 5 M      MIT     No           Shaurya
 6 M      MIT     No           Pratham
 7 M      MIT     No           Jeevan 
 8 M      SMI     No           Dhruv  
 9 F      SMI     Yes          Aakrati
10 M      SMI     Yes          Aakrsh 
# ℹ 55 more rows
