Tattoos are attractive? – ClassWork2
…
tattoo_data <- read_csv("~/Documents/R_work/Class work 2/ClassWork2/posts/A3/Datasets for A3/1-tattoo_attraction.csv") %>% 
janitor::clean_names(case = "snake")

Rows: 40 Columns: 3
── Column specification ────────────────────────────────────────────────────────
Delimiter: ","
chr (3): Name, Gender, Tattoo_Attractive

ℹ Use `spec()` to retrieve the full column specification for this data.
ℹ Specify the column types or set `show_col_types = FALSE` to quiet this message.

tattoo_data

# A tibble: 40 × 3
   name    gender tattoo_attractive
   <chr>   <chr>  <chr>            
 1 Aadya   F      Yes              
 2 Abhinav M      Yes              
 3 Aditya  M      No               
 4 Akash   M      Yes              
 5 Amit    M      No               
 6 Amogh   M      Yes              
 7 Anurag  M      Yes              
 8 Arnav   M      Yes              
 9 Aryan   M      Yes              
10 Ashmita F      No               
# ℹ 30 more rows
…
