Believe in God – DataRchive
…
believe_data <- read_csv("~/Documents/R_work/DataRchive/posts/A3_Ashmita/Datasets/5-believe_in_god.csv") %>%
janitor::clean_names(case = "snake")

Rows: 47 Columns: 3
── Column specification ────────────────────────────────────────────────────────
Delimiter: ","
chr (3): Name, Gender, Believe_in_God

ℹ Use `spec()` to retrieve the full column specification for this data.
ℹ Specify the column types or set `show_col_types = FALSE` to quiet this message.

believe_data

# A tibble: 47 × 3
   name      gender believe_in_god
   <chr>     <chr>  <chr>         
 1 Sanjana   Female Yes           
 2 Tathasthu Male   Yes           
 3 Vaibhav   Male   Yes           
 4 Siddharth Male   Yes           
 5 Ashik     Male   No            
 6 Kshirab   Female Yes           
 7 Niyosha   Female Yes           
 8 Charvi    Female No            
 9 Anoti     Female Yes           
10 Dhruv     Male   No            
# ℹ 37 more rows
…
There are missing values in the data as some students might have chose to not answer the question. Hence removing unanswered entries.

believe_mod1 <- believe_data %>% 
  naniar::replace_with_na_all(condition = ~ .x %in% common_na_strings) %>% 
drop_na()
believe_mod1

# A tibble: 41 × 3
   name      gender believe_in_god
   <chr>     <chr>  <chr>         
 1 Sanjana   Female Yes           
 2 Tathasthu Male   Yes           
 3 Vaibhav   Male   Yes           
 4 Siddharth Male   Yes           
 5 Ashik     Male   No            
 6 Kshirab   Female Yes           
 7 Niyosha   Female Yes           
 8 Charvi    Female No            
 9 Anoti     Female Yes           
10 Dhruv     Male   No            
# ℹ 31 more rows
…
