TV series – DataRchive
…
tv_series_data <- read_csv("~/Documents/R_work/DataRchive/posts/A3_Ashmita/Datasets/2-tv_series.csv") %>%
janitor::clean_names(case = "snake")

Rows: 52 Columns: 5
── Column specification ────────────────────────────────────────────────────────
Delimiter: ","
chr (2): Name, Gender
dbl (3): Friends, Modern Family, Big Bang Theory

ℹ Use `spec()` to retrieve the full column specification for this data.
ℹ Specify the column types or set `show_col_types = FALSE` to quiet this message.

tv_series_data

# A tibble: 52 × 5
   name    gender friends modern_family big_bang_theory
   <chr>   <chr>    <dbl>         <dbl>           <dbl>
 1 Diya    Female       8           9               9  
 2 Ihina   Female       7           9               6  
 3 Abhinav Male         8          10               7  
 4 Nikhita Female       7           9               6  
 5 Rishi   Male         8           6               5  
 6 Charvi  Female       6           9               5.5
 7 Maya    Female       8           7.5             9  
 8 Anuva   Female       4           8               6  
 9 Shourya Male         9           8               5  
10 sarthak Male         7           9               3  
# ℹ 42 more rows
…
Since there are a few missing numeric data, dropping the respective entries

tv_series_mod1 <- tv_series_data %>% 
  naniar::replace_with_na_all(condition = ~ .x %in% common_na_numbers) %>% 
drop_na()
tv_series_mod1

# A tibble: 46 × 5
   name    gender friends modern_family big_bang_theory
   <chr>   <chr>    <dbl>         <dbl>           <dbl>
 1 Diya    Female       8           9               9  
 2 Ihina   Female       7           9               6  
 3 Abhinav Male         8          10               7  
 4 Nikhita Female       7           9               6  
 5 Rishi   Male         8           6               5  
 6 Charvi  Female       6           9               5.5
 7 Maya    Female       8           7.5             9  
 8 Anuva   Female       4           8               6  
 9 Shourya Male         9           8               5  
10 sarthak Male         7           9               3  
# ℹ 36 more rows
…
