Weekly Expenditure – DataRchive
…
New names:
Rows: 40 Columns: 6
── Column specification
──────────────────────────────────────────────────────── Delimiter: "," chr
(2): Name, Gender dbl (1): Total_Expenditure_Last_Week lgl (3): ...4, ...5,
...6
ℹ Use `spec()` to retrieve the full column specification for this data. ℹ
Specify the column types or set `show_col_types = FALSE` to quiet this message.
• `` -> `...4`
• `` -> `...5`
• `` -> `...6`

weekly_expends_data

# A tibble: 40 × 6
   name      gender total_expenditure_last_week x4    x5    x6   
   <chr>     <chr>                        <dbl> <lgl> <lgl> <lgl>
 1 Radha     Female                        2000 NA    NA    NA   
 2 Prerana   Female                        1200 NA    NA    NA   
 3 Chris     Male                         15000 NA    NA    NA   
 4 Nireeksha Female                        3620 NA    NA    NA   
 5 Supraj    Male                           560 NA    NA    NA   
 6 Adit      Male                          2200 NA    NA    NA   
 7 Shweta    Female                        1500 NA    NA    NA   
 8 Diya      Female                        1206 NA    NA    NA   
 9 Kshama    Female                        1400 NA    NA    NA   
10 Savannah  Female                        2500 NA    NA    NA   
# ℹ 30 more rows
…
Removing the unfilled columns

weekly_expends_mod1 <- weekly_expends_data%>% 
select(name, gender, total_expenditure_last_week)

weekly_expends_mod1

# A tibble: 40 × 3
   name      gender total_expenditure_last_week
   <chr>     <chr>                        <dbl>
 1 Radha     Female                        2000
 2 Prerana   Female                        1200
 3 Chris     Male                         15000
 4 Nireeksha Female                        3620
 5 Supraj    Male                           560
 6 Adit      Male                          2200
 7 Shweta    Female                        1500
 8 Diya      Female                        1206
 9 Kshama    Female                        1400
10 Savannah  Female                        2500
# ℹ 30 more rows

Munging the Data

weekly_expends_mod2 <- weekly_expends_mod1 %>% 
  mutate(gender = as.factor(gender))

weekly_expends_mod2

# A tibble: 40 × 3
   name      gender total_expenditure_last_week
   <chr>     <fct>                        <dbl>
 1 Radha     Female                        2000
 2 Prerana   Female                        1200
 3 Chris     Male                         15000
 4 Nireeksha Female                        3620
 5 Supraj    Male                           560
 6 Adit      Male                          2200
 7 Shweta    Female                        1500
 8 Diya      Female                        1206
 9 Kshama    Female                        1400
10 Savannah  Female                        2500
# ℹ 30 more rows
…
